\relax 
\providecommand \oddpage@label [2]{}
\@writefile{toc}{\contentsline {section}{\numberline {1}Introduction}{4}}
\@writefile{toc}{\contentsline {subsection}{\numberline {1.1}The project aims and goals}{5}}
\@writefile{toc}{\contentsline {subsection}{\numberline {1.2}Proposed framework}{7}}
\@writefile{lof}{\contentsline {figure}{\numberline {1}{\ignorespaces Figure X.}}{7}}
\providecommand*\caption@xref[2]{\@setref\relax\@undefined{#1}}
\newlabel{fig:general1}{{1}{7}}
\@writefile{toc}{\contentsline {subsection}{\numberline {1.3}Structure}{8}}
\@writefile{toc}{\contentsline {section}{\numberline {2}Background}{9}}
\@writefile{toc}{\contentsline {subsection}{\numberline {2.1}Overview of Machine Learning}{9}}
\@writefile{toc}{\contentsline {subsection}{\numberline {2.2}Semi-Supervised learning}{9}}
\@writefile{toc}{\contentsline {subsubsection}{\numberline {2.2.1}Generative models in SSL}{10}}
\@writefile{toc}{\contentsline {subsubsection}{\numberline {2.2.2}Low-density separation models in SSL}{11}}
\@writefile{lof}{\contentsline {figure}{\numberline {2}{\ignorespaces Figure X.}}{11}}
\newlabel{fig:window}{{2}{11}}
\@writefile{lof}{\contentsline {figure}{\numberline {3}{\ignorespaces Figure X.}}{12}}
\newlabel{fig:window}{{3}{12}}
\@writefile{toc}{\contentsline {subsubsection}{\numberline {2.2.3}Graph-based methods}{12}}
\@writefile{toc}{\contentsline {subsubsection}{\numberline {2.2.4}Co-training methods}{13}}
\@writefile{lof}{\contentsline {figure}{\numberline {4}{\ignorespaces Figure X.}}{13}}
\newlabel{fig:window}{{4}{13}}
\@writefile{toc}{\contentsline {subsubsection}{\numberline {2.2.5}Self-training methods}{14}}
\@writefile{toc}{\contentsline {subsubsection}{\numberline {2.2.6}Prototype-based methods}{14}}
\@writefile{toc}{\contentsline {subsection}{\numberline {2.3}Learning Vector Quantization}{15}}
\@writefile{lof}{\contentsline {figure}{\numberline {5}{\ignorespaces Figure X.}}{16}}
\newlabel{fig:window}{{5}{16}}
\@writefile{toc}{\contentsline {subsection}{\numberline {2.4}Further development of Learning Vector Quantization}{17}}
\@writefile{toc}{\contentsline {subsubsection}{\numberline {2.4.1}LVQ methods taxonomy}{17}}
\@writefile{lof}{\contentsline {figure}{\numberline {6}{\ignorespaces Figure X.}}{17}}
\newlabel{fig:window}{{6}{17}}
\@writefile{toc}{\contentsline {subsubsection}{\numberline {2.4.2}Project's classifier selection reasoning}{18}}
\@writefile{toc}{\contentsline {subsubsection}{\numberline {2.4.3}Generalized Learning Vector Quantization}{19}}
\@writefile{toc}{\contentsline {subsection}{\numberline {2.5}Dissimilarity data}{21}}
\@writefile{toc}{\contentsline {subsubsection}{\numberline {2.5.1}Overview of distance measures}{22}}
\@writefile{toc}{\contentsline {subsection}{\numberline {2.6}Relational Learning Vector Quantization}{23}}
\@writefile{toc}{\contentsline {subsubsection}{\numberline {2.6.1}Dissimilarity data in LVQ}{23}}
\@writefile{toc}{\contentsline {subsubsection}{\numberline {2.6.2}RGLVQ with dissimilarity data}{24}}
\@writefile{toc}{\contentsline {subsection}{\numberline {2.7}Semi-supervised prediction with RPC}{27}}
\@writefile{toc}{\contentsline {subsection}{\numberline {2.8}Clustering quality estimation}{28}}
\@writefile{toc}{\contentsline {section}{\numberline {3}Data origins and processing}{31}}
\@writefile{toc}{\contentsline {subsection}{\numberline {3.1}CIVIS project and the Green Campus Initiative}{31}}
\@writefile{lof}{\contentsline {figure}{\numberline {7}{\ignorespaces Figure X.}}{32}}
\newlabel{fig:sensor1}{{7}{32}}
\@writefile{toc}{\contentsline {subsection}{\numberline {3.2}Data retrieving and processing}{32}}
\@writefile{lof}{\contentsline {figure}{\numberline {8}{\ignorespaces Figure X.}}{32}}
\newlabel{fig:sensor2}{{8}{32}}
\@writefile{lof}{\contentsline {figure}{\numberline {9}{\ignorespaces Figure X.}}{33}}
\newlabel{fig:sensor3}{{9}{33}}
\@writefile{toc}{\contentsline {section}{\numberline {4}Algorithms and models}{35}}
\@writefile{toc}{\contentsline {subsection}{\numberline {4.1}Approach overview}{35}}
\@writefile{lof}{\contentsline {figure}{\numberline {10}{\ignorespaces Figure X.}}{36}}
\newlabel{fig:sensor4}{{10}{36}}
\@writefile{toc}{\contentsline {subsection}{\numberline {4.2}Data preprocessing}{37}}
\@writefile{toc}{\contentsline {subsection}{\numberline {4.3}Model and training}{39}}
\@writefile{toc}{\contentsline {subsubsection}{\numberline {4.3.1}Classification algorithm: RPC + SSL}{40}}
\@writefile{loa}{\contentsline {algorithm}{\numberline {1}{\ignorespaces The model main algorithm: Semi-supervised RPC\relax }}{40}}
\@writefile{toc}{\contentsline {subsubsection}{\numberline {4.3.2}RPC algorithm in details}{41}}
\@writefile{loa}{\contentsline {algorithm}{\numberline {2}{\ignorespaces RPC algorithm in details\relax }}{42}}
\@writefile{toc}{\contentsline {subsubsection}{\numberline {4.3.3}New prototype creation algorithm}{43}}
\@writefile{loa}{\contentsline {algorithm}{\numberline {3}{\ignorespaces New prototype handling procedure\relax }}{43}}
\@writefile{toc}{\contentsline {subsubsection}{\numberline {4.3.4}Initialization of prototypes}{46}}
\@writefile{toc}{\contentsline {subsection}{\numberline {4.4}Algorithm computational complexity}{47}}
\@writefile{toc}{\contentsline {subsection}{\numberline {4.5}Anomaly detection}{47}}
\@writefile{toc}{\contentsline {subsection}{\numberline {4.6}Storing data and updating it from newest observation}{49}}
\@writefile{toc}{\contentsline {section}{\numberline {5}Experiments and results}{50}}
\@writefile{toc}{\contentsline {subsection}{\numberline {5.1}Experiments with synthetic data}{50}}
\@writefile{toc}{\contentsline {subsubsection}{\numberline {5.1.1}T1/T2 experiment}{50}}
\@writefile{lof}{\contentsline {figure}{\numberline {11}{\ignorespaces Figure X}}{52}}
\newlabel{fig:window}{{11}{52}}
\@writefile{lof}{\contentsline {figure}{\numberline {12}{\ignorespaces Figure X}}{52}}
\newlabel{fig:window}{{12}{52}}
\@writefile{lof}{\contentsline {figure}{\numberline {13}{\ignorespaces Figure X}}{53}}
\newlabel{fig:window}{{13}{53}}
\@writefile{toc}{\contentsline {subsubsection}{\numberline {5.1.2}SSL-RPC performance comparing to other models}{54}}
\@writefile{toc}{\contentsline {subsubsection}{\numberline {5.1.3}Time constraints}{55}}
\@writefile{lof}{\contentsline {figure}{\numberline {14}{\ignorespaces Figure X.}}{56}}
\newlabel{fig:window}{{14}{56}}
\@writefile{lot}{\contentsline {table}{\numberline {1}{\ignorespaces Synthetic data results\relax }}{56}}
\@writefile{lof}{\contentsline {figure}{\numberline {15}{\ignorespaces Figure X}}{57}}
\newlabel{fig:window}{{15}{57}}
\@writefile{toc}{\contentsline {subsubsection}{\numberline {5.1.4}Comparing initialization techniques}{57}}
\@writefile{toc}{\contentsline {subsubsection}{\numberline {5.1.5}Regularized SSL-RPC experiment}{58}}
\@writefile{toc}{\contentsline {subsubsection}{\numberline {5.1.6}Model mechanics explained}{58}}
\@writefile{lof}{\contentsline {figure}{\numberline {16}{\ignorespaces Figure X}}{59}}
\@writefile{lot}{\contentsline {table}{\numberline {2}{\ignorespaces SSL-RPC results with varying $\lambda $\relax }}{59}}
\@writefile{lof}{\contentsline {figure}{\numberline {17}{\ignorespaces Figure X}}{60}}
\newlabel{fig:window}{{17}{60}}
\@writefile{lof}{\contentsline {figure}{\numberline {18}{\ignorespaces Figure X}}{61}}
\newlabel{fig:window}{{18}{61}}
\@writefile{toc}{\contentsline {subsection}{\numberline {5.2}Experiments with real-word datasets}{61}}
\@writefile{lot}{\contentsline {table}{\numberline {3}{\ignorespaces UCI data results\relax }}{62}}
\@writefile{toc}{\contentsline {subsection}{\numberline {5.3}Experiments with sensors data}{63}}
\@writefile{toc}{\contentsline {subsection}{\numberline {5.4}Open-source community contribution}{63}}
\@writefile{toc}{\contentsline {section}{\numberline {6}Discussion and conclusions}{65}}
\@writefile{toc}{\contentsline {subsection}{\numberline {6.1}SSL models and proposed directions}{65}}
\@writefile{toc}{\contentsline {subsection}{\numberline {6.2}SSL-RPC development proposals}{65}}
\@writefile{toc}{\contentsline {subsection}{\numberline {6.3}SSL-RPC drawbacks}{66}}
\@writefile{toc}{\contentsline {subsection}{\numberline {6.4}Latest scientific achievements}{66}}
\@writefile{toc}{\contentsline {section}{\numberline {7}References}{68}}
